{
    "navigation" : [
        {
            "label"    : "Eten & Drinken",
            "page"     : "products",
            "category" : "food_and_drink"
        },
        {
            "label"    : "Speelgoed",
            "page"     : "products",
            "category" : "toys"
        },
        {
            "label"    : "Kleding",
            "page"     : "products",
            "category" : "clothing"
        },
        {
            "label"    : "Gadgets",
            "page"     : "products",
            "category" : "gadgets"
        }
    ]
}
